<?xml version="1.0" encoding="UTF-8" standalone="no"?>
<!-- Created with Inkscape (http://www.inkscape.org/) -->

<svg
   xmlns:dc="http://purl.org/dc/elements/1.1/"
   xmlns:cc="http://creativecommons.org/ns#"
   xmlns:rdf="http://www.w3.org/1999/02/22-rdf-syntax-ns#"
   xmlns:svg="http://www.w3.org/2000/svg"
   xmlns="http://www.w3.org/2000/svg"
   xmlns:sodipodi="http://sodipodi.sourceforge.net/DTD/sodipodi-0.dtd"
   xmlns:inkscape="http://www.inkscape.org/namespaces/inkscape"
   version="1.1"
   id="svg2"
   xml:space="preserve"
   width="352.90668"
   height="23.626667"
   viewBox="0 0 352.90668 23.626667"
   sodipodi:docname="BerlinWallFoundation_farbig_black.svg"
   inkscape:version="0.92.3 (2405546, 2018-03-11)"><metadata
     id="metadata8"><rdf:RDF><cc:Work
         rdf:about=""><dc:format>image/svg+xml</dc:format><dc:type
           rdf:resource="http://purl.org/dc/dcmitype/StillImage" /><dc:title></dc:title></cc:Work></rdf:RDF></metadata><defs
     id="defs6" /><sodipodi:namedview
     pagecolor="#ffffff"
     bordercolor="#666666"
     borderopacity="1"
     objecttolerance="10"
     gridtolerance="10"
     guidetolerance="10"
     inkscape:pageopacity="0"
     inkscape:pageshadow="2"
     inkscape:window-width="1366"
     inkscape:window-height="713"
     id="namedview4"
     showgrid="false"
     inkscape:zoom="1.0229333"
     inkscape:cx="62.565173"
     inkscape:cy="11.813334"
     inkscape:window-x="0"
     inkscape:window-y="339"
     inkscape:window-maximized="1"
     inkscape:current-layer="g12" /><g
     id="g10"
     inkscape:groupmode="layer"
     inkscape:label="ink_ext_XXXXXX"
     transform="matrix(1.3333333,0,0,-1.3333333,0,23.626667)"><g
       id="g12"
       transform="scale(0.1)"><path
         d="m 1433.3,1.44531 h 24.17 V 80.6211 h 39.07 v 20.2339 h -39.07 v 54.594 h 41.49 v 20.235 H 1433.3 Z M 1571.38,133.23 c 0,17.125 5.79,25.114 16.67,25.114 11.09,0 16.88,-7.989 16.88,-25.114 V 41.7266 c 0,-14.9805 -6.75,-22.9375 -16.88,-22.9375 -9.92,0 -16.67,7.957 -16.67,22.9375 z M 1547.26,43.1797 C 1547.26,16.1602 1557.12,0 1588.05,0 c 33.07,0 41,21.4414 41,45.8281 v 88.1249 c 0,27.02 -9.91,43.203 -41,43.203 -32.86,0 -40.79,-21.468 -40.79,-45.883 z M 1765.9,175.684 h -24.12 V 36.6641 c 0,-11.8438 -4.34,-17.875 -16.61,-17.875 -12.6,0 -16.95,6.0312 -16.95,17.875 V 175.684 H 1684.1 V 40.7383 C 1684.1,20.5039 1692.09,0 1725.17,0 c 32.8,0 40.73,20.5039 40.73,40.7383 z M 1821.7,1.44531 h 21.23 V 150.141 h 0.48 L 1871.88,1.44531 h 34.73 V 175.684 h -22.62 V 30.875 h -0.48 l -28.52,144.809 H 1821.7 Z M 1987.23,155.449 h 9.65 c 20.58,0 23.26,-8.687 23.26,-34.547 V 61.0547 c 0,-29.9375 -3.43,-39.3438 -21.28,-39.3438 h -11.63 z M 1963.16,1.44531 h 34.95 c 38.17,0 46.1,13.96489 46.1,58.61719 V 112 c 0,50.684 -3.11,63.684 -42.24,63.684 h -38.81 z m 126.23,0 h 24.13 l 7.98,44.41409 h 37.63 l 7.99,-44.41409 h 24.12 L 2155.75,175.684 h -27.98 z m 50.93,148.69569 h 0.48 l 14.95,-84.0472 h -30.65 z m 74.4,5.308 h 28.94 V 1.44531 h 24.12 V 155.449 h 29.01 v 20.235 h -82.07 z M 2345.08,1.44531 h 24.07 V 175.684 h -24.07 z M 2448.33,133.23 c 0,17.125 5.84,25.114 16.72,25.114 11.09,0 16.89,-7.989 16.89,-25.114 V 41.7266 c 0,-14.9805 -6.75,-22.9375 -16.89,-22.9375 -9.92,0 -16.72,7.957 -16.72,22.9375 z M 2424.27,43.1797 C 2424.27,16.1602 2434.13,0 2465.05,0 c 33.07,0 41.01,21.4414 41.01,45.8281 v 88.1249 c 0,27.02 -9.92,43.203 -41.01,43.203 -32.85,0 -40.78,-21.468 -40.78,-45.883 z M 2561.81,1.44531 h 21.23 V 150.141 h 0.47 L 2612.02,1.44531 h 34.75 V 175.684 h -22.68 V 30.875 h -0.49 l -28.51,144.809 h -33.28 V 1.44531"
         style="fill:#000000;fill-opacity:1;fill-rule:nonzero;stroke:none"
         id="path14"
         inkscape:connector-curvature="0" /><path
         d="m 0,2.92188 h 37.8711 c 35.2344,0 40.0586,12.03512 40.0586,49.69142 0,29.7187 -3.8555,36.2344 -23.1524,39.8242 v 0.5117 c 16.4024,2.168 21.9493,7.6918 21.9493,41.9688 0,31.867 -5.0664,42.238 -34.7344,42.238 H 0 Z M 24.0938,83.5391 h 15.7304 c 13.2891,0 15.4297,-3.8555 15.4297,-30.1758 0,-27.5274 -2.4023,-31.6524 -16.1797,-31.6524 H 24.0938 Z m 0,74.8279 h 11.3554 c 15.4883,0 18.6016,-4.824 18.6016,-24.656 0,-28.488 -1.4453,-31.383 -15.9453,-31.383 H 24.0938 Z M 132.5,2.92188 h 65.613 V 23.1836 h -41.492 v 58.9102 h 39.102 v 20.2342 h -39.102 v 54.594 h 41.492 v 20.234 H 132.5 Z m 114.656,0 H 271.25 V 78.7148 h 8.23 c 15.95,0 18.84,-4.371 18.84,-20.7695 V 18.6289 c 0,-6.9961 0.489,-11.36327 2.903,-15.70702 h 22.664 c -1.446,7.23442 -1.446,15.92192 -1.446,22.19142 v 37.8984 c 0,16.4258 -5.546,24.8438 -21.953,26.5586 v 0.4531 c 19.785,6.0313 22.918,16.1646 22.918,39.6136 0,38.113 -3.621,47.519 -38.855,47.519 H 247.156 Z M 271.25,156.922 h 11.609 c 15.012,0 16.457,-2.442 16.457,-28.246 0,-26.11 -2.683,-29.7268 -21.765,-29.7268 H 271.25 Z M 379.668,2.92188 h 64.656 V 23.1836 H 403.789 V 177.156 h -24.121 z m 113.918,0 h 24.117 V 177.156 h -24.117 z m 79.922,0 H 594.68 V 151.617 h 0.535 L 623.684,2.92188 h 34.722 V 177.156 H 635.793 V 32.3477 h -0.48 L 606.797,177.156 h -33.289 z m 237.781,0 h 29.16 L 860.977,148.695 h 0.488 L 877.645,2.92188 h 29.433 L 938.438,177.156 H 915.762 L 895.02,33.8008 h -0.489 L 878.613,177.156 h -32.8 L 826.453,33.8008 h -0.476 L 808.605,177.156 h -24.867 z m 157.156,0 h 24.133 l 7.982,44.41402 h 37.63 l 7.98,-44.41402 h 24.12 L 1034.81,177.156 h -27.97 z M 1019.38,151.617 h 0.47 l 14.96,-84.0506 h -30.66 z M 1120.53,2.92188 h 64.64 V 23.1836 h -40.52 V 177.156 h -24.12 z m 114.65,0 h 64.64 V 23.1836 h -40.57 V 177.156 h -24.07 V 2.92188"
         style="fill:#231f20;fill-opacity:1;fill-rule:nonzero;stroke:none"
         id="path16"
         inkscape:connector-curvature="0" /></g></g></svg>