<?xml version="1.0" encoding="UTF-8" standalone="no"?>
<!-- Created with Inkscape (http://www.inkscape.org/) -->

<svg
   xmlns:dc="http://purl.org/dc/elements/1.1/"
   xmlns:cc="http://creativecommons.org/ns#"
   xmlns:rdf="http://www.w3.org/1999/02/22-rdf-syntax-ns#"
   xmlns:svg="http://www.w3.org/2000/svg"
   xmlns="http://www.w3.org/2000/svg"
   xmlns:sodipodi="http://sodipodi.sourceforge.net/DTD/sodipodi-0.dtd"
   xmlns:inkscape="http://www.inkscape.org/namespaces/inkscape"
   version="1.1"
   id="svg2"
   xml:space="preserve"
   width="1372"
   height="238.66667"
   viewBox="0 0 1372 238.66667"
   sodipodi:docname="eu_flag_europe_for_citizens_co_funded_vect_pos_black_right_en.svg"
   inkscape:version="0.92.3 (2405546, 2018-03-11)"><metadata
     id="metadata8"><rdf:RDF><cc:Work
         rdf:about=""><dc:format>image/svg+xml</dc:format><dc:type
           rdf:resource="http://purl.org/dc/dcmitype/StillImage" /><dc:title></dc:title></cc:Work></rdf:RDF></metadata><defs
     id="defs6" /><sodipodi:namedview
     pagecolor="#ffffff"
     bordercolor="#666666"
     borderopacity="1"
     objecttolerance="10"
     gridtolerance="10"
     guidetolerance="10"
     inkscape:pageopacity="0"
     inkscape:pageshadow="2"
     inkscape:window-width="1366"
     inkscape:window-height="713"
     id="namedview4"
     showgrid="false"
     inkscape:zoom="0.26311953"
     inkscape:cx="243.23546"
     inkscape:cy="119.33334"
     inkscape:window-x="0"
     inkscape:window-y="339"
     inkscape:window-maximized="1"
     inkscape:current-layer="g10" /><g
     id="g10"
     inkscape:groupmode="layer"
     inkscape:label="ink_ext_XXXXXX"
     transform="matrix(1.3333333,0,0,-1.3333333,0,238.66667)"><g
       id="g12"
       transform="scale(0.1)"><path
         d="M 8.01172,102.27 H 2540.5117 V 1783.52 H 8.01172 Z M 1272.11,1584.34 l 13.48,-36.22 11.44,-30.62 35.24,-0.78 43.43,-0.7 -35.39,-25.24 -27.34,-19.45 9.8,-30.47 12.39,-38.4 -33.83,21.99 -29.18,19.03 -29.18,-19.03 -34.02,-21.95 12.53,38.36 9.85,30.47 -27.31,19.45 -35.58,25.24 43.55,0.7 35.31,0.78 11.45,30.62 z m -275.782,-72.5 13.362,-36.25 11.44,-30.82 35.28,-0.51 43.55,-0.94 -35.55,-25.08 -27.34,-19.41 9.84,-30.47 12.39,-38.59 -33.95,22.26 -29.061,18.99 -29.141,-18.99 -33.949,-22.26 12.461,38.59 9.852,30.47 -27.422,19.41 -35.469,25.08 43.59,0.94 35.238,0.51 11.442,30.85 z m 554.102,-0.08 13.52,-36.14 11.48,-30.85 35.27,-0.59 43.36,-0.9 -35.39,-25.16 -27.3,-19.41 9.68,-30.47 12.62,-38.36 -34.06,21.96 -29.14,19.02 -29.06,-19.02 -34.07,-21.96 12.58,38.36 9.85,30.47 -27.43,19.41 -35.43,25.16 43.52,0.9 35.23,0.59 11.37,30.82 z m -754.918,-195.16 13.437,-36.25 11.321,-30.62 35.351,-0.67 43.399,-0.78 -35.309,-25.19 -27.422,-19.54 9.762,-30.35 12.539,-38.55 -33.899,22.15 -29.261,19.02 -29.18,-19.02 -33.711,-22 12.262,38.4 9.929,30.39 -27.39,19.5 -35.43,25.19 43.52,0.78 35.23,0.67 11.371,30.62 z m 953.978,-1.91 13.52,-36.21 11.4,-30.82 35.32,-0.55 43.59,-0.9 -35.66,-25.08 -27.31,-19.41 9.92,-30.47 12.39,-38.48 -33.87,22.07 -29.26,19.11 -29.1,-19.11 -34.02,-22.07 12.54,38.48 9.76,30.47 -27.3,19.41 -35.43,25.08 43.51,0.9 35.31,0.55 11.25,30.82 z m -1029.06,-270.55 13.402,-36.25 11.438,-30.742 35.242,-0.546 43.508,-0.903 -35.469,-25.078 -27.262,-19.492 9.762,-30.391 12.5,-38.508 -33.981,22.149 -29.14,19.062 -29.219,-19.062 -33.941,-22.188 12.57,38.547 9.808,30.391 -27.418,19.461 -35.511,25.109 43.551,0.903 35.32,0.546 11.398,30.742 z m 1102.34,-0.59 13.48,-36.13 11.45,-30.74 35.31,-0.629 43.28,-0.781 -13.75,-9.879 -21.52,-15.391 -27.43,-19.379 9.85,-30.422 12.46,-38.437 -33.91,22.066 -29.22,18.942 -29.14,-18.942 -34.02,-22.066 12.58,38.437 9.88,30.422 -27.38,19.379 -35.43,25.27 43.44,0.781 35.27,0.629 11.33,30.74 z m -1028.2,-268.351 13.282,-36.371 11.449,-30.547 35.187,-0.742 43.524,-0.98 -35.434,-24.957 -27.348,-19.532 9.809,-30.39 12.262,-38.481 -33.75,22.071 -29.172,19.07 -29.149,-19.07 -34.019,-21.872 12.578,38.282 9.801,30.39 -27.301,19.532 -35.43,24.957 43.403,0.98 35.269,0.742 11.489,30.59 z m 954.02,-2.308 13.32,-36.289 11.45,-30.743 35.31,-0.589 43.44,-0.93 -35.43,-25.16 -27.38,-19.379 9.84,-30.461 12.42,-38.442 -33.86,22.032 -29.15,19.058 -29.17,-19.058 -33.68,-22.032 12.19,38.403 9.84,30.5 -27.3,19.379 -35.43,25.16 43.44,0.93 35.23,0.589 11.49,30.743 z M 993.949,578.32 l 13.391,-36.09 11.33,-30.82 35.28,-0.551 43.43,-0.898 -35.43,-25.16 -27.3,-19.41 9.8,-30.43 12.5,-38.481 -34.02,22.04 -29.02,19.058 -29.301,-19.058 -33.871,-22.11 12.461,38.551 9.852,30.43 -27.27,19.41 -35.511,25.16 43.441,0.898 35.269,0.551 11.372,30.86 z m 553.981,-1.371 13.48,-36.168 11.44,-30.66 35.27,-0.781 43.56,-0.899 -35.47,-25.043 -27.34,-19.488 9.84,-30.39 12.11,-38.52 -33.63,22.07 -29.22,19.02 -29.1,-19.02 -33.87,-22.109 12.46,38.559 9.81,30.39 -27.35,19.488 -35.54,25.043 43.55,0.899 35.23,0.781 11.37,30.617 z m -276.02,-71.359 13.56,-36.25 11.33,-30.668 35.39,-0.66 43.36,-0.903 -35.47,-25.121 -27.31,-19.41 9.89,-30.387 12.3,-38.519 -33.79,22.066 -29.18,19.032 -29.14,-19.032 -33.83,-22.066 12.31,38.519 9.88,30.387 -27.42,19.371 -35.39,25.16 43.48,0.903 35.27,0.66 11.44,30.668 z"
         style="fill:#0c0000;fill-opacity:1;fill-rule:nonzero;stroke:none"
         id="path14"
         inkscape:connector-curvature="0" /><path
         d="m 3217.07,1520.12 50.08,-12.74 c -10.51,-41.33 -29.38,-72.89 -56.64,-94.61 -27.31,-21.72 -60.63,-32.57 -100,-32.57 -40.78,0 -73.95,8.35 -99.49,25.03 -25.55,16.72 -45,40.9 -58.32,72.58 -13.36,31.68 -20,65.67 -20,102.03 0,39.61 7.5,74.18 22.57,103.71 15.04,29.5 36.49,51.92 64.26,67.23 27.77,15.31 58.36,22.97 91.76,22.97 37.81,0 69.65,-9.69 95.47,-29.06 25.82,-19.42 43.79,-46.64 53.94,-81.8 l -49.29,-11.68 c -8.79,27.7 -21.53,47.85 -38.21,60.51 -16.68,12.62 -37.65,18.94 -62.97,18.94 -29.1,0 -53.35,-7.03 -72.93,-21.01 -19.49,-14.03 -33.24,-32.85 -41.13,-56.49 -7.93,-23.63 -11.87,-47.96 -11.87,-73.08 0,-32.35 4.68,-60.59 14.06,-84.77 9.37,-24.14 23.94,-42.15 43.75,-54.1 19.77,-11.95 41.21,-17.93 64.26,-17.93 28.04,0 51.75,8.13 71.21,24.42 19.45,16.25 32.62,40.39 39.49,72.42"
         style="fill:#0c0000;fill-opacity:1;fill-rule:nonzero;stroke:none"
         id="path16"
         inkscape:connector-curvature="0" /><path
         d="m 3305.59,1524.53 c 0,51.06 14.1,88.87 42.34,113.44 23.55,20.43 52.27,30.66 86.17,30.66 37.7,0 68.48,-12.46 92.38,-37.26 23.95,-24.85 35.9,-59.14 35.9,-102.93 0,-35.47 -5.27,-63.4 -15.9,-83.71 -10.54,-20.35 -25.93,-36.14 -46.17,-47.39 -20.23,-11.25 -42.26,-16.87 -66.21,-16.87 -38.36,0 -69.37,12.34 -93.01,37.11 -23.67,24.76 -35.5,60.39 -35.5,106.95 z m 47.77,0 c 0,-35.31 7.66,-61.76 22.97,-79.3 15.27,-17.57 34.57,-26.36 57.77,-26.36 23.09,0 42.27,8.83 57.58,26.48 15.27,17.66 22.97,44.57 22.97,80.74 0,34.11 -7.74,59.93 -23.13,77.5 -15.39,17.54 -34.53,26.33 -57.42,26.33 -23.2,0 -42.5,-8.75 -57.77,-26.21 -15.31,-17.5 -22.97,-43.87 -22.97,-79.18"
         style="fill:#0c0000;fill-opacity:1;fill-rule:nonzero;stroke:none"
         id="path18"
         inkscape:connector-curvature="0" /><path
         d="m 3598.79,1500.9 h 142.699 v 46.9922 H 3598.79 Z"
         style="fill:#0c0000;fill-opacity:1;fill-rule:nonzero;stroke:none"
         id="path20"
         inkscape:connector-curvature="0" /><path
         d="m 3803.95,1386.68 v 239.37 h -41.06 v 36.33 h 41.06 v 29.34 c 0,18.51 1.64,32.26 4.88,41.29 4.49,12.11 12.34,21.91 23.63,29.45 11.25,7.54 27.03,11.29 47.34,11.29 13.09,0 27.54,-1.56 43.36,-4.69 l -6.99,-40.74 c -9.61,1.72 -18.75,2.62 -27.34,2.62 -14.1,0 -24.06,-3.05 -29.92,-9.1 -5.86,-6.06 -8.79,-17.39 -8.79,-34.03 v -25.43 h 53.43 v -36.33 h -53.43 v -239.37 h -46.17"
         style="fill:#0c0000;fill-opacity:1;fill-rule:nonzero;stroke:none"
         id="path22"
         inkscape:connector-curvature="0" /><path
         d="m 4119.3,1386.68 v 40.51 c -21.33,-31.17 -50.35,-46.72 -87,-46.72 -16.17,0 -31.25,3.08 -45.27,9.33 -14.02,6.22 -24.41,14.07 -31.25,23.48 -6.8,9.45 -11.56,21.02 -14.3,34.69 -1.91,9.14 -2.85,23.67 -2.85,43.59 v 170.82 h 46.49 v -152.89 c 0,-24.41 0.93,-40.86 2.81,-49.33 2.93,-12.31 9.1,-21.96 18.59,-28.95 9.46,-6.99 21.18,-10.51 35.08,-10.51 13.95,0 27.03,3.6 39.26,10.75 12.19,7.18 20.86,16.99 25.94,29.33 5.04,12.38 7.58,30.35 7.58,53.91 v 147.69 h 46.48 v -275.7 h -41.56"
         style="fill:#0c0000;fill-opacity:1;fill-rule:nonzero;stroke:none"
         id="path24"
         inkscape:connector-curvature="0" /><path
         d="m 4233.63,1386.68 v 275.7 h 41.8 v -39.18 c 20.12,30.28 49.22,45.43 87.23,45.43 16.52,0 31.72,-3.01 45.54,-8.98 13.83,-5.98 24.22,-13.79 31.1,-23.48 6.87,-9.69 11.72,-21.21 14.45,-34.53 1.72,-8.67 2.58,-23.79 2.58,-45.43 v -169.53 h -46.45 v 167.7 c 0,19.06 -1.79,33.28 -5.43,42.73 -3.59,9.41 -10.04,16.95 -19.22,22.58 -9.21,5.62 -20,8.43 -32.38,8.43 -19.8,0 -36.87,-6.32 -51.25,-18.94 -14.33,-12.66 -21.52,-36.6 -21.52,-71.91 v -150.59 h -46.45"
         style="fill:#0c0000;fill-opacity:1;fill-rule:nonzero;stroke:none"
         id="path26"
         inkscape:connector-curvature="0" /><path
         d="m 4705.35,1386.68 v 34.8 c -17.34,-27.34 -42.89,-41.01 -76.64,-41.01 -21.83,0 -41.91,6.05 -60.23,18.16 -18.32,12.11 -32.54,29.03 -42.58,50.75 -10.08,21.71 -15.12,46.67 -15.12,74.88 0,27.54 4.57,52.5 13.67,74.92 9.14,22.38 22.82,39.57 41.06,51.52 18.2,11.96 38.59,17.93 61.13,17.93 16.52,0 31.25,-3.51 44.14,-10.54 12.93,-7 23.4,-16.14 31.49,-27.39 v 136.57 h 46.21 v -380.59 z m -146.8,137.58 c 0,-35.28 7.39,-61.68 22.15,-79.14 14.81,-17.5 32.31,-26.25 52.42,-26.25 20.32,0 37.54,8.36 51.72,25.04 14.22,16.71 21.29,42.22 21.29,76.48 0,37.73 -7.18,65.39 -21.68,83.05 -14.41,17.65 -32.22,26.48 -53.4,26.48 -20.66,0 -37.89,-8.47 -51.75,-25.43 -13.83,-16.95 -20.75,-43.71 -20.75,-80.23"
         style="fill:#0c0000;fill-opacity:1;fill-rule:nonzero;stroke:none"
         id="path28"
         inkscape:connector-curvature="0" /><path
         d="m 5009.14,1475.47 48.01,-5.98 c -7.58,-28.2 -21.6,-50.08 -42.07,-65.66 -20.47,-15.59 -46.64,-23.36 -78.48,-23.36 -40.08,0 -71.87,12.38 -95.35,37.23 -23.48,24.84 -35.23,59.68 -35.23,104.49 0,46.4 11.87,82.38 35.62,108.01 23.75,25.62 54.53,38.43 92.38,38.43 36.64,0 66.6,-12.58 89.81,-37.65 23.24,-25.12 34.84,-60.39 34.84,-105.94 0,-2.77 -0.08,-6.92 -0.23,-12.46 h -204.42 c 1.72,-30.28 10.24,-53.48 25.55,-69.57 15.31,-16.1 34.41,-24.14 57.31,-24.14 17.03,0 31.56,4.49 43.59,13.51 12.07,8.99 21.6,23.36 28.67,43.09 z m -152.54,75.55 h 153.05 c -2.07,23.2 -7.93,40.58 -17.54,52.18 -14.81,17.97 -33.99,27 -57.58,27 -21.33,0 -39.26,-7.19 -53.79,-21.57 -14.57,-14.33 -22.58,-33.55 -24.14,-57.61"
         style="fill:#0c0000;fill-opacity:1;fill-rule:nonzero;stroke:none"
         id="path30"
         inkscape:connector-curvature="0" /><path
         d="m 5293.24,1386.68 v 34.8 c -17.34,-27.34 -42.93,-41.01 -76.64,-41.01 -21.83,0 -41.91,6.05 -60.23,18.16 -18.32,12.11 -32.54,29.03 -42.58,50.75 -10.08,21.71 -15.12,46.67 -15.12,74.88 0,27.54 4.53,52.5 13.67,74.92 9.11,22.38 22.82,39.57 41.06,51.52 18.2,11.96 38.59,17.93 61.13,17.93 16.52,0 31.25,-3.51 44.14,-10.54 12.89,-7 23.4,-16.14 31.49,-27.39 v 136.57 h 46.21 v -380.59 z m -146.83,137.58 c 0,-35.28 7.42,-61.68 22.18,-79.14 14.81,-17.5 32.27,-26.25 52.43,-26.25 20.27,0 37.53,8.36 51.71,25.04 14.18,16.71 21.29,42.22 21.29,76.48 0,37.73 -7.22,65.39 -21.68,83.05 -14.45,17.65 -32.22,26.48 -53.39,26.48 -20.67,0 -37.9,-8.47 -51.76,-25.43 -13.83,-16.95 -20.78,-43.71 -20.78,-80.23"
         style="fill:#0c0000;fill-opacity:1;fill-rule:nonzero;stroke:none"
         id="path32"
         inkscape:connector-curvature="0" /><path
         d="m 5599.06,1386.68 h -43.08 v 380.59 h 46.44 v -135.79 c 19.61,24.77 44.65,37.15 75.12,37.15 16.84,0 32.81,-3.43 47.85,-10.27 15.08,-6.84 27.46,-16.45 37.19,-28.83 9.72,-12.34 17.3,-27.3 22.81,-44.76 5.51,-17.5 8.28,-36.18 8.28,-56.1 0,-47.22 -11.64,-83.75 -34.84,-109.53 -23.24,-25.78 -51.1,-38.67 -83.63,-38.67 -32.35,0 -57.74,13.55 -76.14,40.74 z m -0.51,139.92 c 0,-33.05 4.5,-56.91 13.44,-71.64 14.61,-24.06 34.42,-36.09 59.34,-36.09 20.31,0 37.85,8.86 52.65,26.6 14.81,17.77 22.19,44.18 22.19,79.33 0,35.98 -7.11,62.54 -21.29,79.69 -14.18,17.15 -31.36,25.71 -51.48,25.71 -20.31,0 -37.85,-8.87 -52.66,-26.61 -14.76,-17.73 -22.19,-43.39 -22.19,-76.99"
         style="fill:#0c0000;fill-opacity:1;fill-rule:nonzero;stroke:none"
         id="path34"
         inkscape:connector-curvature="0" /><path
         d="m 5848.12,1280.51 -5.15,43.87 c 10.15,-2.78 18.98,-4.15 26.56,-4.15 10.31,0 18.59,1.72 24.81,5.2 6.17,3.44 11.25,8.28 15.19,14.53 2.93,4.69 7.66,16.25 14.18,34.77 0.86,2.61 2.27,6.4 4.14,11.44 l -103.98,276.21 h 50.08 l 57.03,-159.65 c 7.38,-20.27 13.98,-41.56 19.84,-63.86 5.35,21.44 11.72,42.38 19.1,62.81 l 58.6,160.7 h 46.44 L 5970.7,1381.99 c -11.21,-30.27 -19.88,-51.13 -26.05,-62.54 -8.28,-15.39 -17.74,-26.72 -28.4,-33.86 -10.66,-7.19 -23.4,-10.79 -38.2,-10.79 -8.95,0 -18.95,1.92 -29.93,5.71"
         style="fill:#0c0000;fill-opacity:1;fill-rule:nonzero;stroke:none"
         id="path36"
         inkscape:connector-curvature="0" /><path
         d="m 6362.7,1428.48 6.71,-41.29 c -13.08,-2.74 -24.76,-4.14 -35.07,-4.14 -16.88,0 -29.96,2.69 -39.26,8.04 -9.3,5.36 -15.82,12.43 -19.61,21.18 -3.79,8.71 -5.67,27.11 -5.67,55.15 v 158.63 h -34.06 v 36.33 h 34.06 v 68.28 l 46.22,28.05 v -96.33 h 46.68 v -36.33 h -46.68 v -161.21 c 0,-13.36 0.78,-21.91 2.42,-25.7 1.64,-3.83 4.29,-6.84 8.01,-9.1 3.71,-2.27 8.98,-3.36 15.85,-3.36 5.16,0 12,0.59 20.4,1.8"
         style="fill:#0c0000;fill-opacity:1;fill-rule:nonzero;stroke:none"
         id="path38"
         inkscape:connector-curvature="0" /><path
         d="m 6408.12,1386.68 v 380.59 h 46.45 V 1630.7 c 21.68,25.28 49.02,37.93 82.07,37.93 20.31,0 37.93,-4.02 52.89,-12.11 15,-8.04 25.7,-19.14 32.15,-33.32 6.44,-14.22 9.69,-34.8 9.69,-61.79 v -174.73 h -46.45 v 174.73 c 0,23.36 -5.04,40.35 -15.12,51.01 -10.03,10.63 -24.29,15.94 -42.69,15.94 -13.79,0 -26.72,-3.59 -38.87,-10.74 -12.11,-7.19 -20.74,-16.92 -25.94,-29.22 -5.11,-12.31 -7.73,-29.26 -7.73,-50.9 v -150.82 h -46.45"
         style="fill:#0c0000;fill-opacity:1;fill-rule:nonzero;stroke:none"
         id="path40"
         inkscape:connector-curvature="0" /><path
         d="m 6889.69,1475.47 48.01,-5.98 c -7.58,-28.2 -21.61,-50.08 -42.08,-65.66 -20.46,-15.59 -46.64,-23.36 -78.43,-23.36 -40.12,0 -71.88,12.38 -95.35,37.23 -23.52,24.84 -35.24,59.68 -35.24,104.49 0,46.4 11.88,82.38 35.63,108.01 23.71,25.62 54.53,38.43 92.38,38.43 36.64,0 66.56,-12.58 89.8,-37.65 23.21,-25.12 34.85,-60.39 34.85,-105.94 0,-2.77 -0.12,-6.92 -0.28,-12.46 h -204.41 c 1.76,-30.28 10.23,-53.48 25.59,-69.57 15.31,-16.1 34.37,-24.14 57.26,-24.14 17.03,0 31.56,4.49 43.63,13.51 12.04,8.99 21.61,23.36 28.64,43.09 z m -152.5,75.55 h 153.01 c -2.08,23.2 -7.9,40.58 -17.54,52.18 -14.81,17.97 -33.99,27 -57.54,27 -21.33,0 -39.3,-7.19 -53.83,-21.57 -14.53,-14.33 -22.58,-33.55 -24.1,-57.61"
         style="fill:#0c0000;fill-opacity:1;fill-rule:nonzero;stroke:none"
         id="path42"
         inkscape:connector-curvature="0" /><path
         d="m 2948.16,748.672 v 380.588 h 273.56 v -44.88 H 2998.24 V 967.77 h 209.3 v -44.649 h -209.3 V 793.59 h 232.27 v -44.918 h -282.35"
         style="fill:#0c0000;fill-opacity:1;fill-rule:nonzero;stroke:none"
         id="path44"
         inkscape:connector-curvature="0" /><path
         d="m 3473.36,748.672 v 40.508 c -21.37,-31.129 -50.35,-46.719 -86.99,-46.719 -16.17,0 -31.25,3.129 -45.28,9.34 -14.02,6.25 -24.45,14.058 -31.25,23.508 -6.79,9.421 -11.56,20.98 -14.29,34.652 -1.92,9.18 -2.85,23.711 -2.85,43.59 v 170.829 h 46.44 v -152.9 c 0,-24.41 0.94,-40.859 2.85,-49.332 2.93,-12.269 9.1,-21.918 18.6,-28.949 9.45,-6.988 21.13,-10.5 35.07,-10.5 13.95,0 27.04,3.59 39.22,10.781 12.23,7.18 20.86,16.95 25.94,29.329 5.08,12.351 7.62,30.312 7.62,53.871 v 147.7 h 46.44 V 748.672 h -41.52"
         style="fill:#0c0000;fill-opacity:1;fill-rule:nonzero;stroke:none"
         id="path46"
         inkscape:connector-curvature="0" /><path
         d="m 3587.15,748.672 v 275.708 h 41.8 v -41.802 c 10.66,19.572 20.5,32.462 29.57,38.712 9.02,6.21 18.94,9.33 29.8,9.33 15.63,0 31.56,-5.03 47.73,-15.07 l -16.01,-43.359 c -11.33,6.758 -22.7,10.149 -34.06,10.149 -10.16,0 -19.26,-3.078 -27.35,-9.219 -8.08,-6.172 -13.83,-14.68 -17.3,-25.582 -5.16,-16.598 -7.74,-34.769 -7.74,-54.527 v -144.34 h -46.44"
         style="fill:#0c0000;fill-opacity:1;fill-rule:nonzero;stroke:none"
         id="path48"
         inkscape:connector-curvature="0" /><path
         d="m 3746.37,886.52 c 0,51.058 14.1,88.871 42.34,113.48 23.56,20.39 52.31,30.62 86.17,30.62 37.7,0 68.48,-12.42 92.42,-37.261 23.91,-24.839 35.86,-59.14 35.86,-102.929 0,-35.469 -5.31,-63.399 -15.86,-83.711 -10.58,-20.348 -25.97,-36.129 -46.21,-47.379 -20.23,-11.25 -42.26,-16.879 -66.21,-16.879 -38.36,0 -69.37,12.379 -93,37.109 -23.68,24.77 -35.51,60.391 -35.51,106.95 z m 47.73,0 c 0,-35.309 7.7,-61.719 23.01,-79.29 15.27,-17.582 34.57,-26.371 57.77,-26.371 23.09,0 42.27,8.832 57.58,26.481 15.27,17.66 22.93,44.57 22.93,80.75 0,34.101 -7.69,59.922 -23.09,77.5 -15.39,17.57 -34.53,26.359 -57.42,26.359 -23.2,0 -42.5,-8.75 -57.77,-26.25 -15.31,-17.461 -23.01,-43.859 -23.01,-79.179"
         style="fill:#0c0000;fill-opacity:1;fill-rule:nonzero;stroke:none"
         id="path50"
         inkscape:connector-curvature="0" /><path
         d="m 4057.62,643.051 v 381.329 h 42.3 v -35.829 c 10,14.029 21.25,24.539 33.83,31.569 12.54,6.99 27.77,10.5 45.66,10.5 23.4,0 44.07,-6.05 61.96,-18.16 17.89,-12.15 31.36,-29.222 40.51,-51.288 9.14,-22.07 13.67,-46.25 13.67,-72.582 0,-28.199 -5,-53.59 -15.08,-76.168 -10.08,-22.582 -24.69,-39.883 -43.91,-51.91 -19.18,-12.032 -39.33,-18.051 -60.51,-18.051 -15.46,0 -29.37,3.277 -41.67,9.84 -12.27,6.609 -22.43,14.89 -30.32,24.929 V 643.051 Z m 42.07,241.91 c 0,-35.473 7.15,-61.68 21.4,-78.633 14.3,-16.988 31.57,-25.469 51.88,-25.469 20.62,0 38.32,8.789 53.05,26.371 14.68,17.571 22.07,44.758 22.07,81.641 0,35.109 -7.19,61.438 -21.57,78.899 -14.37,17.5 -31.52,26.25 -51.48,26.25 -19.81,0 -37.31,-9.329 -52.5,-27.93 -15.24,-18.59 -22.85,-45.621 -22.85,-81.129"
         style="fill:#0c0000;fill-opacity:1;fill-rule:nonzero;stroke:none"
         id="path52"
         inkscape:connector-curvature="0" /><path
         d="m 4539.18,837.461 48.01,-5.981 c -7.58,-28.199 -21.6,-50.07 -42.07,-65.66 -20.47,-15.59 -46.64,-23.359 -78.48,-23.359 -40.08,0 -71.84,12.418 -95.35,37.269 -23.48,24.801 -35.24,59.649 -35.24,104.489 0,46.371 11.92,82.34 35.63,107.972 23.75,25.619 54.53,38.429 92.38,38.429 36.64,0 66.6,-12.57 89.85,-37.651 23.2,-25.078 34.8,-60.391 34.8,-105.899 0,-2.769 -0.08,-6.949 -0.23,-12.461 h -204.42 c 1.72,-30.308 10.24,-53.48 25.59,-69.57 15.27,-16.129 34.37,-24.18 57.26,-24.18 17.04,0 31.57,4.532 43.64,13.52 12.03,8.98 21.56,23.351 28.63,43.082 z m -152.54,75.551 h 153.05 c -2.07,23.199 -7.89,40.578 -17.54,52.187 -14.81,18 -33.99,26.992 -57.54,26.992 -21.37,0 -39.3,-7.191 -53.83,-21.531 -14.53,-14.371 -22.58,-33.59 -24.14,-57.648"
         style="fill:#0c0000;fill-opacity:1;fill-rule:nonzero;stroke:none"
         id="path54"
         inkscape:connector-curvature="0" /><path
         d="m 4803.44,748.672 v 239.379 h -41.06 v 36.329 h 41.06 v 29.33 c 0,18.52 1.64,32.27 4.92,41.29 4.45,12.11 12.3,21.95 23.59,29.45 11.25,7.54 27.03,11.29 47.35,11.29 13.08,0 27.54,-1.52 43.36,-4.65 l -6.96,-40.78 c -9.65,1.72 -18.75,2.62 -27.34,2.62 -14.14,0 -24.1,-3.05 -29.96,-9.1 -5.82,-6.06 -8.75,-17.38 -8.75,-33.99 v -25.46 h 53.4 v -36.329 h -53.4 V 748.672 h -46.21"
         style="fill:#0c0000;fill-opacity:1;fill-rule:nonzero;stroke:none"
         id="path56"
         inkscape:connector-curvature="0" /><path
         d="m 4921.88,886.52 c 0,51.058 14.14,88.871 42.34,113.48 23.55,20.39 52.3,30.62 86.17,30.62 37.7,0 68.52,-12.42 92.42,-37.261 23.91,-24.839 35.86,-59.14 35.86,-102.929 0,-35.469 -5.27,-63.399 -15.86,-83.711 -10.58,-20.348 -25.97,-36.129 -46.21,-47.379 -20.19,-11.25 -42.26,-16.879 -66.21,-16.879 -38.36,0 -69.34,12.379 -93.01,37.109 -23.67,24.77 -35.5,60.391 -35.5,106.95 z m 47.77,0 c 0,-35.309 7.65,-61.719 22.97,-79.29 15.31,-17.582 34.57,-26.371 57.77,-26.371 23.09,0 42.27,8.832 57.58,26.481 15.31,17.66 22.97,44.57 22.97,80.75 0,34.101 -7.7,59.922 -23.13,77.5 -15.39,17.57 -34.53,26.359 -57.42,26.359 -23.2,0 -42.46,-8.75 -57.77,-26.25 -15.32,-17.461 -22.97,-43.859 -22.97,-79.179"
         style="fill:#0c0000;fill-opacity:1;fill-rule:nonzero;stroke:none"
         id="path58"
         inkscape:connector-curvature="0" /><path
         d="m 5232.62,748.672 v 275.708 h 41.79 v -41.802 c 10.67,19.572 20.51,32.462 29.57,38.712 9.03,6.21 18.95,9.33 29.81,9.33 15.62,0 31.56,-5.03 47.73,-15.07 l -16.01,-43.359 c -11.33,6.758 -22.7,10.149 -34.06,10.149 -10.16,0 -19.26,-3.078 -27.35,-9.219 -8.08,-6.172 -13.87,-14.68 -17.3,-25.582 -5.16,-16.598 -7.74,-34.769 -7.74,-54.527 v -144.34 h -46.44"
         style="fill:#0c0000;fill-opacity:1;fill-rule:nonzero;stroke:none"
         id="path60"
         inkscape:connector-curvature="0" /><path
         d="m 5831.88,882.109 50.03,-12.699 c -10.46,-41.359 -29.37,-72.93 -56.64,-94.64 -27.26,-21.719 -60.58,-32.579 -100,-32.579 -40.78,0 -73.94,8.36 -99.49,25.079 -25.55,16.679 -45,40.851 -58.32,72.531 -13.32,31.679 -20,65.668 -20,102.039 0,39.609 7.54,74.18 22.58,103.71 15.08,29.49 36.48,51.91 64.26,67.22 27.81,15.32 58.4,22.97 91.75,22.97 37.86,0 69.69,-9.69 95.47,-29.06 25.82,-19.38 43.79,-46.64 53.95,-81.76 l -49.3,-11.72 c -8.75,27.7 -21.48,47.89 -38.16,60.51 -16.72,12.62 -37.7,18.95 -62.97,18.95 -29.1,0 -53.4,-7 -72.93,-21.02 -19.53,-14.02 -33.24,-32.85 -41.17,-56.48 -7.89,-23.601 -11.88,-47.969 -11.88,-73.051 0,-32.379 4.73,-60.629 14.06,-84.769 9.42,-24.141 23.99,-42.18 43.76,-54.141 19.8,-11.949 41.21,-17.929 64.25,-17.929 28.05,0 51.8,8.171 71.25,24.421 19.46,16.289 32.58,40.43 39.5,72.418"
         style="fill:#0c0000;fill-opacity:1;fill-rule:nonzero;stroke:none"
         id="path62"
         inkscape:connector-curvature="0" /><path
         d="m 5937.93,1129.26 h 46.4492 v -53.7109 H 5937.93 Z m 0,-380.588 v 275.708 h 46.45 V 748.672 h -46.45"
         style="fill:#0c0000;fill-opacity:1;fill-rule:nonzero;stroke:none"
         id="path64"
         inkscape:connector-curvature="0" /><path
         d="m 6156.48,790.469 6.72,-41.25 c -13.04,-2.77 -24.76,-4.18 -35.08,-4.18 -16.87,0 -29.96,2.691 -39.21,8.051 -9.3,5.39 -15.86,12.422 -19.61,21.172 -3.79,8.75 -5.71,27.109 -5.71,55.148 v 158.641 h -34.06 v 36.329 h 34.06 v 68.28 l 46.21,28.04 v -96.32 h 46.68 V 988.051 H 6109.8 V 826.84 c 0,-13.32 0.82,-21.918 2.47,-25.711 1.6,-3.828 4.25,-6.828 7.96,-9.098 3.72,-2.23 9.03,-3.359 15.9,-3.359 5.16,0 11.96,0.59 20.35,1.797"
         style="fill:#0c0000;fill-opacity:1;fill-rule:nonzero;stroke:none"
         id="path66"
         inkscape:connector-curvature="0" /><path
         d="m 6202.19,1129.26 h 46.4375 v -53.7109 H 6202.19 Z m 0,-380.588 v 275.708 h 46.44 V 748.672 h -46.44"
         style="fill:#0c0000;fill-opacity:1;fill-rule:nonzero;stroke:none"
         id="path68"
         inkscape:connector-curvature="0" /><path
         d="m 6294.84,748.672 v 37.93 l 174.46,201.449 c -19.81,-1.063 -37.27,-1.571 -52.39,-1.571 h -111.75 v 37.9 h 223.98 v -30.9 l -148.36,-174.96 -28.63,-31.918 c 20.78,1.558 40.31,2.308 58.55,2.308 h 126.72 v -40.238 h -242.58"
         style="fill:#0c0000;fill-opacity:1;fill-rule:nonzero;stroke:none"
         id="path70"
         inkscape:connector-curvature="0" /><path
         d="m 6771.25,837.461 48.01,-5.981 c -7.58,-28.199 -21.6,-50.07 -42.07,-65.66 -20.47,-15.59 -46.64,-23.359 -78.48,-23.359 -40.08,0 -71.87,12.418 -95.35,37.269 -23.48,24.801 -35.24,59.649 -35.24,104.489 0,46.371 11.88,82.34 35.63,107.972 23.75,25.619 54.53,38.429 92.38,38.429 36.64,0 66.6,-12.57 89.81,-37.651 23.24,-25.078 34.84,-60.391 34.84,-105.899 0,-2.769 -0.08,-6.949 -0.23,-12.461 h -204.42 c 1.72,-30.308 10.24,-53.48 25.55,-69.57 15.31,-16.129 34.41,-24.18 57.3,-24.18 17.04,0 31.57,4.532 43.6,13.52 12.07,8.98 21.6,23.351 28.67,43.082 z m -152.54,75.551 h 153.05 c -2.07,23.199 -7.93,40.578 -17.54,52.187 -14.81,18 -33.99,26.992 -57.58,26.992 -21.33,0 -39.26,-7.191 -53.79,-21.531 -14.57,-14.371 -22.58,-33.59 -24.14,-57.648"
         style="fill:#0c0000;fill-opacity:1;fill-rule:nonzero;stroke:none"
         id="path72"
         inkscape:connector-curvature="0" /><path
         d="m 6877.58,748.672 v 275.708 h 41.8 v -39.181 c 20.11,30.271 49.17,45.421 87.22,45.421 16.52,0 31.68,-3 45.55,-8.98 13.87,-5.94 24.22,-13.79 31.09,-23.48 6.88,-9.68 11.68,-21.211 14.46,-34.531 1.71,-8.629 2.57,-23.789 2.57,-45.43 V 748.672 h -46.44 V 916.41 c 0,19.02 -1.8,33.238 -5.43,42.692 -3.6,9.418 -10,16.949 -19.22,22.578 -9.22,5.621 -20,8.441 -32.38,8.441 -19.81,0 -36.88,-6.332 -51.21,-18.949 -14.38,-12.652 -21.57,-36.602 -21.57,-71.91 v -150.59 h -46.44"
         style="fill:#0c0000;fill-opacity:1;fill-rule:nonzero;stroke:none"
         id="path74"
         inkscape:connector-curvature="0" /><path
         d="m 7152.93,830.98 45.94,7.258 c 2.58,-18.508 9.76,-32.687 21.52,-42.578 11.8,-9.84 28.28,-14.801 49.45,-14.801 21.33,0 37.15,4.371 47.46,13.121 10.36,8.75 15.51,18.989 15.51,30.79 0,10.539 -4.57,18.82 -13.67,24.921 -6.37,4.137 -22.23,9.411 -47.5,15.821 -34.06,8.629 -57.69,16.129 -70.86,22.457 -13.12,6.332 -23.12,15.043 -29.92,26.211 -6.8,11.172 -10.2,23.519 -10.2,36.992 0,12.308 2.82,23.668 8.4,34.137 5.59,10.472 13.21,19.181 22.82,26.101 7.22,5.35 17.1,9.92 29.57,13.63 12.46,3.71 25.85,5.58 40.11,5.58 21.53,0 40.39,-3.12 56.64,-9.33 16.29,-6.25 28.28,-14.69 36.02,-25.31 7.73,-10.671 13.08,-24.89 16.01,-42.742 l -45.43,-6.207 c -2.07,14.18 -8.04,25.27 -17.92,33.199 -9.93,7.969 -23.87,11.961 -41.96,11.961 -21.33,0 -36.56,-3.562 -45.66,-10.632 -9.14,-7.11 -13.67,-15.43 -13.67,-24.918 0,-6.051 1.87,-11.52 5.66,-16.371 3.79,-5.04 9.73,-9.18 17.81,-12.461 4.65,-1.719 18.32,-5.7 41.06,-11.95 32.85,-8.828 55.78,-16.058 68.75,-21.679 13.01,-5.629 23.16,-13.789 30.58,-24.532 7.39,-10.699 11.1,-24.058 11.1,-39.957 0,-15.589 -4.5,-30.242 -13.56,-44.031 -9.02,-13.75 -22.07,-24.371 -39.1,-31.91 -17.03,-7.539 -36.29,-11.289 -57.77,-11.289 -35.63,0 -62.78,7.418 -81.45,22.309 -18.67,14.878 -30.58,36.949 -35.74,66.21"
         style="fill:#0c0000;fill-opacity:1;fill-rule:nonzero;stroke:none"
         id="path76"
         inkscape:connector-curvature="0" /><path
         d="m 7588.55,748.672 v 380.588 h 142.7 c 25.12,0 44.34,-1.21 57.58,-3.64 18.55,-3.12 34.14,-9.02 46.72,-17.77 12.54,-8.75 22.65,-20.97 30.31,-36.72 7.66,-15.78 11.48,-33.08 11.48,-51.95 0,-32.34 -10.27,-59.731 -30.74,-82.149 -20.47,-22.422 -57.46,-33.633 -110.94,-33.633 h -97.07 V 748.672 Z m 50.04,199.648 h 97.86 c 32.34,0 55.31,6.059 68.86,18.16 13.6,12.11 20.39,29.18 20.39,51.14 0,15.93 -3.98,29.57 -11.99,40.9 -8.01,11.32 -18.51,18.82 -31.6,22.46 -8.44,2.26 -23.99,3.4 -46.72,3.4 h -96.8 V 948.32"
         style="fill:#0c0000;fill-opacity:1;fill-rule:nonzero;stroke:none"
         id="path78"
         inkscape:connector-curvature="0" /><path
         d="m 7934.65,748.672 v 275.708 h 41.8 v -41.802 c 10.66,19.572 20.5,32.462 29.53,38.712 9.06,6.21 18.98,9.33 29.8,9.33 15.67,0 31.56,-5.03 47.77,-15.07 l -16.01,-43.359 c -11.37,6.758 -22.74,10.149 -34.06,10.149 -10.16,0 -19.26,-3.078 -27.39,-9.219 -8.04,-6.172 -13.82,-14.68 -17.26,-25.582 -5.16,-16.598 -7.74,-34.769 -7.74,-54.527 v -144.34 h -46.44"
         style="fill:#0c0000;fill-opacity:1;fill-rule:nonzero;stroke:none"
         id="path80"
         inkscape:connector-curvature="0" /><path
         d="m 8093.87,886.52 c 0,51.058 14.1,88.871 42.3,113.48 23.56,20.39 52.31,30.62 86.17,30.62 37.7,0 68.48,-12.42 92.43,-37.261 23.9,-24.839 35.85,-59.14 35.85,-102.929 0,-35.469 -5.27,-63.399 -15.85,-83.711 -10.59,-20.348 -25.98,-36.129 -46.22,-47.379 -20.23,-11.25 -42.26,-16.879 -66.21,-16.879 -38.36,0 -69.33,12.379 -93,37.109 -23.68,24.77 -35.47,60.391 -35.47,106.95 z m 47.73,0 c 0,-35.309 7.66,-61.719 22.97,-79.29 15.31,-17.582 34.57,-26.371 57.77,-26.371 23.09,0 42.27,8.832 57.58,26.481 15.31,17.66 22.97,44.57 22.97,80.75 0,34.101 -7.69,59.922 -23.09,77.5 -15.42,17.57 -34.57,26.359 -57.46,26.359 -23.2,0 -42.46,-8.75 -57.77,-26.25 -15.31,-17.461 -22.97,-43.859 -22.97,-79.179"
         style="fill:#0c0000;fill-opacity:1;fill-rule:nonzero;stroke:none"
         id="path82"
         inkscape:connector-curvature="0" /><path
         d="m 8396.56,725.859 45.16,-6.757 c 1.91,-14.024 7.15,-24.223 15.74,-30.622 11.52,-8.679 27.27,-13.011 47.23,-13.011 21.52,0 38.12,4.332 49.8,13.011 11.72,8.629 19.61,20.739 23.75,36.321 2.42,9.539 3.56,29.5 3.36,59.969 -20.31,-24.071 -45.58,-36.098 -75.86,-36.098 -37.69,0 -66.83,13.668 -87.5,41.019 -20.62,27.34 -30.97,60.149 -30.97,98.399 0,26.32 4.72,50.582 14.21,72.808 9.46,22.262 23.17,39.412 41.18,51.562 17.96,12.11 39.06,18.16 63.32,18.16 32.34,0 59.02,-13.16 80.04,-39.448 v 33.208 h 42.81 V 786.051 c 0,-42.891 -4.34,-73.321 -13.05,-91.25 -8.67,-17.891 -22.42,-32.031 -41.29,-42.422 -18.83,-10.391 -42.03,-15.578 -69.53,-15.578 -32.69,0 -59.1,7.379 -79.22,22.179 -20.15,14.809 -29.84,37.11 -29.18,66.879 z m 38.48,165.621 c 0,-36.171 7.11,-62.57 21.41,-79.179 14.25,-16.641 32.14,-24.922 53.67,-24.922 21.33,0 39.22,8.242 53.67,24.769 14.45,16.524 21.68,42.461 21.68,77.774 0,33.75 -7.42,59.18 -22.31,76.328 -14.88,17.109 -32.85,25.699 -53.82,25.699 -20.63,0 -38.21,-8.429 -52.62,-25.308 -14.45,-16.871 -21.68,-41.95 -21.68,-75.161"
         style="fill:#0c0000;fill-opacity:1;fill-rule:nonzero;stroke:none"
         id="path84"
         inkscape:connector-curvature="0" /><path
         d="m 8698.52,748.672 v 275.708 h 41.79 v -41.802 c 10.67,19.572 20.51,32.462 29.57,38.712 9.03,6.21 18.95,9.33 29.81,9.33 15.62,0 31.56,-5.03 47.73,-15.07 l -16.01,-43.359 c -11.33,6.758 -22.7,10.149 -34.07,10.149 -10.15,0 -19.25,-3.078 -27.34,-9.219 -8.09,-6.172 -13.87,-14.68 -17.3,-25.582 -5.16,-16.598 -7.74,-34.769 -7.74,-54.527 v -144.34 h -46.44"
         style="fill:#0c0000;fill-opacity:1;fill-rule:nonzero;stroke:none"
         id="path86"
         inkscape:connector-curvature="0" /><path
         d="m 9053.87,782.699 c -17.19,-14.73 -33.75,-25.078 -49.65,-31.179 -15.94,-6.051 -33.01,-9.059 -51.25,-9.059 -30.12,0 -53.24,7.379 -69.42,22.187 -16.17,14.801 -24.25,33.711 -24.25,56.723 0,13.508 3.04,25.82 9.18,36.988 6.09,11.172 14.1,20.121 23.98,26.871 9.88,6.758 21.02,11.879 33.44,15.321 9.1,2.418 22.85,4.758 41.29,7.027 37.5,4.492 65.11,9.844 82.81,16.094 0.2,6.406 0.27,10.469 0.27,12.187 0,19.02 -4.37,32.461 -13.16,40.231 -11.88,10.551 -29.49,15.859 -52.89,15.859 -21.88,0 -38.01,-3.859 -48.4,-11.558 -10.43,-7.692 -18.12,-21.332 -23.12,-40.903 l -45.4,6.25 c 4.15,19.532 10.9,35.313 20.4,47.352 9.45,12.03 23.12,21.29 41.01,27.81 17.89,6.48 38.63,9.72 62.19,9.72 23.4,0 42.42,-2.77 57.03,-8.32 14.65,-5.54 25.39,-12.5 32.27,-20.89 6.87,-8.398 11.71,-18.988 14.45,-31.801 1.56,-7.968 2.3,-22.339 2.3,-43.089 v -62.301 c 0,-43.438 1.02,-70.938 2.97,-82.418 1.99,-11.531 5.9,-22.539 11.76,-33.129 h -48.52 c -4.8,9.687 -7.93,21.058 -9.29,34.027 z M 9050,887.07 c -16.88,-6.949 -42.15,-12.808 -75.86,-17.66 -19.1,-2.769 -32.62,-5.89 -40.55,-9.371 -7.89,-3.437 -14.02,-8.519 -18.32,-15.16 -4.25,-6.68 -6.44,-14.059 -6.44,-22.219 0,-12.461 4.69,-22.82 14.06,-31.14 9.41,-8.321 23.13,-12.461 41.17,-12.461 17.89,0 33.83,3.953 47.78,11.8 13.9,7.891 24.14,18.672 30.7,32.34 4.96,10.551 7.46,26.141 7.46,46.723 v 17.148"
         style="fill:#0c0000;fill-opacity:1;fill-rule:nonzero;stroke:none"
         id="path88"
         inkscape:connector-curvature="0" /><path
         d="m 9168.98,748.672 v 275.708 h 41.57 v -38.681 c 8.59,13.52 20.04,24.381 34.29,32.581 14.3,8.2 30.55,12.34 48.79,12.34 20.32,0 36.96,-4.25 49.92,-12.73 13.01,-8.48 22.15,-20.351 27.5,-35.55 21.68,32.19 49.89,48.28 84.65,48.28 27.19,0 48.09,-7.57 62.7,-22.73 14.61,-15.12 21.91,-38.441 21.91,-69.96 V 748.672 h -46.17 V 922.34 c 0,18.711 -1.48,32.148 -4.49,40.39 -3.05,8.211 -8.48,14.848 -16.41,19.848 -7.93,5.043 -17.19,7.543 -27.89,7.543 -19.26,0 -35.23,-6.449 -47.97,-19.34 -12.73,-12.89 -19.1,-33.551 -19.1,-61.91 V 748.672 h -46.44 v 179.137 c 0,20.781 -3.79,36.332 -11.37,46.722 -7.58,10.391 -19.96,15.59 -37.15,15.59 -13.09,0 -25.2,-3.48 -36.29,-10.391 -11.09,-6.921 -19.14,-17.031 -24.1,-30.351 -5,-13.359 -7.5,-32.539 -7.5,-57.66 V 748.672 h -46.45"
         style="fill:#0c0000;fill-opacity:1;fill-rule:nonzero;stroke:none"
         id="path90"
         inkscape:connector-curvature="0" /><path
         d="m 9609.3,748.672 v 275.708 h 41.48 v -38.681 c 8.63,13.52 20,24.381 34.34,32.581 14.29,8.2 30.58,12.34 48.79,12.34 20.31,0 36.87,-4.25 49.88,-12.73 13.01,-8.48 22.23,-20.351 27.5,-35.55 21.72,32.19 49.92,48.28 84.73,48.28 27.07,0 47.96,-7.57 62.69,-22.73 14.57,-15.12 21.88,-38.441 21.88,-69.96 V 748.672 h -46.18 V 922.34 c 0,18.711 -1.52,32.148 -4.53,40.39 -2.97,8.211 -8.47,14.848 -16.36,19.848 -7.93,5.043 -17.23,7.543 -27.93,7.543 -19.18,0 -35.2,-6.449 -47.97,-19.34 -12.74,-12.89 -19.1,-33.551 -19.1,-61.91 V 748.672 h -46.41 v 179.137 c 0,20.781 -3.83,36.332 -11.41,46.722 -7.5,10.391 -19.92,15.59 -37.11,15.59 -13.08,0 -25.19,-3.48 -36.29,-10.391 -11.09,-6.921 -19.1,-17.031 -24.1,-30.351 -5,-13.359 -7.5,-32.539 -7.5,-57.66 V 748.672 h -46.4"
         style="fill:#0c0000;fill-opacity:1;fill-rule:nonzero;stroke:none"
         id="path92"
         inkscape:connector-curvature="0" /><path
         d="m 10237.1,837.461 48,-5.981 c -7.5,-28.199 -21.6,-50.07 -42,-65.66 -20.5,-15.59 -46.7,-23.359 -78.5,-23.359 -40.1,0 -71.9,12.418 -95.3,37.269 -23.5,24.801 -35.3,59.649 -35.3,104.489 0,46.371 11.9,82.34 35.6,107.972 23.8,25.619 54.6,38.429 92.4,38.429 36.7,0 66.6,-12.57 89.8,-37.651 23.3,-25.078 34.9,-60.391 34.9,-105.899 0,-2.769 -0.1,-6.949 -0.3,-12.461 H 10082 c 1.8,-30.308 10.3,-53.48 25.6,-69.57 15.3,-16.129 34.4,-24.18 57.3,-24.18 17,0 31.5,4.532 43.6,13.52 12,8.98 21.6,23.351 28.6,43.082 z m -152.5,75.551 h 153.1 c -2.1,23.199 -8,40.578 -17.6,52.187 -14.8,18 -34,26.992 -57.5,26.992 -21.4,0 -39.3,-7.191 -53.9,-21.531 -14.5,-14.371 -22.5,-33.59 -24.1,-57.648"
         style="fill:#0c0000;fill-opacity:1;fill-rule:nonzero;stroke:none"
         id="path94"
         inkscape:connector-curvature="0" /><path
         d="m 2923.91,248.52 c 0,51.05 14.1,88.859 42.3,113.468 23.59,20.391 52.31,30.633 86.21,30.633 37.7,0 68.48,-12.422 92.38,-37.269 23.91,-24.84 35.86,-59.141 35.86,-102.93 0,-35.473 -5.27,-63.402 -15.86,-83.711 -10.54,-20.352 -25.97,-36.129 -46.17,-47.379 -20.23,-11.25 -42.3,-16.883 -66.21,-16.883 -38.36,0 -69.37,12.391 -93.04,37.11 -23.64,24.773 -35.47,60.39 -35.47,106.961 z m 47.73,0 c 0,-35.321 7.66,-61.719 22.97,-79.301 15.31,-17.578 34.61,-26.367 57.81,-26.367 23.05,0 42.23,8.828 57.54,26.488 15.31,17.648 22.97,44.57 22.97,80.738 0,34.102 -7.7,59.922 -23.09,77.5 -15.39,17.582 -34.53,26.371 -57.42,26.371 -23.2,0 -42.5,-8.75 -57.81,-26.25 -15.31,-17.469 -22.97,-43.871 -22.97,-79.179"
         style="fill:#0c0000;fill-opacity:1;fill-rule:nonzero;stroke:none"
         id="path96"
         inkscape:connector-curvature="0" /><path
         d="m 3246.25,110.66 v 239.379 h -41.05 v 36.332 h 41.05 v 29.328 c 0,18.52 1.6,32.313 4.88,41.289 4.49,12.114 12.35,21.961 23.64,29.461 11.25,7.531 27.03,11.281 47.34,11.281 13.09,0 27.54,-1.558 43.36,-4.64 l -6.95,-40.789 c -9.65,1.758 -18.75,2.621 -27.39,2.621 -14.1,0 -24.1,-3.043 -29.92,-9.102 -5.86,-6.05 -8.79,-17.379 -8.79,-33.98 v -25.469 h 53.44 v -36.332 h -53.44 V 110.66 h -46.17"
         style="fill:#0c0000;fill-opacity:1;fill-rule:nonzero;stroke:none"
         id="path98"
         inkscape:connector-curvature="0" /><path
         d="m 3630.23,152.461 6.72,-41.25 c -13.08,-2.77 -24.76,-4.18 -35.07,-4.18 -16.88,0 -29.97,2.699 -39.26,8.051 -9.26,5.387 -15.82,12.418 -19.61,21.168 -3.79,8.75 -5.67,27.109 -5.67,55.16 v 158.629 h -34.06 v 36.332 h 34.06 v 68.277 l 46.21,28.051 v -96.328 h 46.68 v -36.332 h -46.68 V 188.832 c 0,-13.32 0.79,-21.922 2.43,-25.711 1.64,-3.82 4.29,-6.832 8,-9.101 3.72,-2.219 8.99,-3.36 15.86,-3.36 5.2,0 12,0.59 20.39,1.801"
         style="fill:#0c0000;fill-opacity:1;fill-rule:nonzero;stroke:none"
         id="path100"
         inkscape:connector-curvature="0" /><path
         d="m 3675.66,110.66 v 380.59 h 46.45 V 354.691 c 21.68,25.27 49.02,37.93 82.07,37.93 20.31,0 37.97,-4.031 52.93,-12.07 14.96,-8.051 25.66,-19.18 32.11,-33.36 6.44,-14.222 9.69,-34.812 9.69,-61.8 V 110.66 h -46.45 v 174.731 c 0,23.359 -5.04,40.347 -15.12,51.019 -10.04,10.621 -24.29,15.969 -42.69,15.969 -13.75,0 -26.72,-3.59 -38.87,-10.777 -12.11,-7.192 -20.74,-16.911 -25.94,-29.223 -5.11,-12.258 -7.73,-29.258 -7.73,-50.859 V 110.66 h -46.45"
         style="fill:#0c0000;fill-opacity:1;fill-rule:nonzero;stroke:none"
         id="path102"
         inkscape:connector-curvature="0" /><path
         d="m 4157.23,199.449 48,-5.969 c -7.57,-28.21 -21.6,-50.082 -42.07,-65.671 -20.46,-15.579 -46.64,-23.36 -78.43,-23.36 -40.08,0 -71.88,12.43 -95.35,37.27 -23.52,24.801 -35.24,59.652 -35.24,104.492 0,46.367 11.88,82.34 35.63,107.969 23.71,25.621 54.53,38.441 92.38,38.441 36.64,0 66.56,-12.582 89.8,-37.66 23.21,-25.082 34.85,-60.391 34.85,-105.902 0,-2.77 -0.12,-6.95 -0.28,-12.457 h -204.37 c 1.72,-30.313 10.19,-53.481 25.55,-69.571 15.31,-16.133 34.41,-24.179 57.26,-24.179 17.03,0 31.56,4.527 43.63,13.519 12.03,8.981 21.61,23.359 28.64,43.078 z M 4004.73,275 h 153 c -2.07,23.199 -7.89,40.59 -17.53,52.191 -14.81,18.008 -33.99,26.989 -57.54,26.989 -21.33,0 -39.26,-7.192 -53.83,-21.52 -14.53,-14.379 -22.58,-33.601 -24.1,-57.66"
         style="fill:#0c0000;fill-opacity:1;fill-rule:nonzero;stroke:none"
         id="path104"
         inkscape:connector-curvature="0" /><path
         d="m 4417.34,110.66 v 380.59 h 273.6 V 446.328 H 4467.42 V 329.77 h 209.3 v -44.649 h -209.3 V 155.59 h 232.27 v -44.93 h -282.35"
         style="fill:#0c0000;fill-opacity:1;fill-rule:nonzero;stroke:none"
         id="path106"
         inkscape:connector-curvature="0" /><path
         d="m 4942.54,110.66 v 40.512 c -21.33,-31.133 -50.31,-46.723 -86.95,-46.723 -16.18,0 -31.29,3.133 -45.32,9.34 -14.02,6.25 -24.41,14.063 -31.21,23.512 -6.79,9.418 -11.6,20.98 -14.33,34.648 -1.92,9.18 -2.85,23.711 -2.85,43.602 v 170.82 h 46.48 V 233.48 c 0,-24.421 0.94,-40.859 2.81,-49.339 2.93,-12.262 9.14,-21.911 18.6,-28.942 9.45,-7 21.17,-10.508 35.07,-10.508 13.95,0 27.04,3.59 39.26,10.778 12.23,7.191 20.86,16.953 25.94,29.332 5.08,12.347 7.62,30.32 7.62,53.871 v 147.699 h 46.44 V 110.66 h -41.56"
         style="fill:#0c0000;fill-opacity:1;fill-rule:nonzero;stroke:none"
         id="path108"
         inkscape:connector-curvature="0" /><path
         d="m 5056.37,110.66 v 275.711 h 41.79 V 344.57 c 10.67,19.571 20.51,32.461 29.54,38.711 9.06,6.207 18.98,9.34 29.84,9.34 15.62,0 31.56,-5.043 47.73,-15.082 l -16.01,-43.359 c -11.37,6.761 -22.7,10.16 -34.06,10.16 -10.16,0 -19.26,-3.09 -27.35,-9.219 -8.08,-6.172 -13.87,-14.691 -17.3,-25.59 -5.16,-16.601 -7.74,-34.761 -7.74,-54.531 V 110.66 h -46.44"
         style="fill:#0c0000;fill-opacity:1;fill-rule:nonzero;stroke:none"
         id="path110"
         inkscape:connector-curvature="0" /><path
         d="m 5215.59,248.52 c 0,51.05 14.1,88.859 42.3,113.468 23.59,20.391 52.31,30.633 86.21,30.633 37.7,0 68.48,-12.422 92.38,-37.269 23.91,-24.84 35.86,-59.141 35.86,-102.93 0,-35.473 -5.27,-63.402 -15.86,-83.711 -10.54,-20.352 -25.97,-36.129 -46.17,-47.379 -20.23,-11.25 -42.3,-16.883 -66.21,-16.883 -38.36,0 -69.37,12.391 -93.05,37.11 -23.63,24.773 -35.46,60.39 -35.46,106.961 z m 47.73,0 c 0,-35.321 7.66,-61.719 22.97,-79.301 15.31,-17.578 34.61,-26.367 57.81,-26.367 23.05,0 42.23,8.828 57.54,26.488 15.31,17.648 22.97,44.57 22.97,80.738 0,34.102 -7.7,59.922 -23.09,77.5 -15.39,17.582 -34.53,26.371 -57.42,26.371 -23.2,0 -42.5,-8.75 -57.81,-26.25 -15.31,-17.469 -22.97,-43.871 -22.97,-79.179"
         style="fill:#0c0000;fill-opacity:1;fill-rule:nonzero;stroke:none"
         id="path112"
         inkscape:connector-curvature="0" /><path
         d="M 5526.84,5.03906 V 386.371 h 42.3 v -35.82 c 9.96,14.019 21.25,24.527 33.79,31.558 12.58,6.993 27.77,10.512 45.7,10.512 23.4,0 44.03,-6.062 61.92,-18.172 17.89,-12.148 31.4,-29.219 40.5,-51.289 9.15,-22.07 13.72,-46.25 13.72,-72.57 0,-28.211 -5.04,-53.602 -15.12,-76.18 -10.04,-22.57 -24.69,-39.879 -43.87,-51.91 -19.18,-12.031 -39.33,-18.051 -60.51,-18.051 -15.47,0 -29.37,3.281 -41.68,9.852 -12.3,6.597 -22.42,14.879 -30.35,24.918 V 5.03906 Z m 42.03,241.90994 c 0,-35.469 7.15,-61.679 21.44,-78.629 14.26,-16.988 31.57,-25.468 51.88,-25.468 20.62,0 38.32,8.789 53.01,26.367 14.72,17.582 22.07,44.761 22.07,81.64 0,35.121 -7.19,61.442 -21.57,78.911 -14.33,17.5 -31.52,26.25 -51.44,26.25 -19.81,0 -37.31,-9.34 -52.54,-27.93 -15.24,-18.602 -22.85,-45.629 -22.85,-81.141"
         style="fill:#0c0000;fill-opacity:1;fill-rule:nonzero;stroke:none"
         id="path114"
         inkscape:connector-curvature="0" /><path
         d="m 6008.4,199.449 47.97,-5.969 c -7.54,-28.21 -21.57,-50.082 -42.07,-65.671 -20.47,-15.579 -46.6,-23.36 -78.44,-23.36 -40.08,0 -71.88,12.43 -95.35,37.27 -23.52,24.801 -35.24,59.652 -35.24,104.492 0,46.367 11.88,82.34 35.63,107.969 23.75,25.621 54.53,38.441 92.38,38.441 36.64,0 66.56,-12.582 89.81,-37.66 23.24,-25.082 34.84,-60.391 34.84,-105.902 0,-2.77 -0.12,-6.95 -0.27,-12.457 h -204.38 c 1.72,-30.313 10.24,-53.481 25.55,-69.571 15.31,-16.133 34.41,-24.179 57.26,-24.179 17.03,0 31.61,4.527 43.64,13.519 12.03,8.981 21.6,23.359 28.67,43.078 z M 5855.86,275 h 153.05 c -2.07,23.199 -7.93,40.59 -17.54,52.191 -14.85,18.008 -34.03,26.989 -57.58,26.989 -21.33,0 -39.26,-7.192 -53.83,-21.52 -14.53,-14.379 -22.58,-33.601 -24.1,-57.66"
         style="fill:#0c0000;fill-opacity:1;fill-rule:nonzero;stroke:none"
         id="path116"
         inkscape:connector-curvature="0" /><path
         d="m 6293.55,144.691 c -17.22,-14.73 -33.78,-25.082 -49.68,-31.171 -15.9,-6.059 -32.97,-9.071 -51.21,-9.071 -30.12,0 -53.28,7.391 -69.46,22.192 -16.17,14.808 -24.25,33.711 -24.25,56.718 0,13.52 3.04,25.821 9.17,36.993 6.1,11.168 14.11,20.117 23.99,26.878 9.88,6.75 21.05,11.872 33.44,15.309 9.1,2.422 22.89,4.762 41.29,7.031 37.5,4.489 65.11,9.84 82.85,16.09 0.15,6.41 0.23,10.469 0.23,12.192 0,19.027 -4.37,32.457 -13.16,40.238 -11.88,10.539 -29.49,15.859 -52.89,15.859 -21.88,0 -37.97,-3.871 -48.4,-11.57 -10.39,-7.688 -18.09,-21.328 -23.09,-40.899 l -45.43,6.25 c 4.14,19.54 10.94,35.321 20.39,47.348 9.46,12.031 23.17,21.293 41.06,27.813 17.89,6.488 38.59,9.73 62.19,9.73 23.39,0 42.42,-2.781 57.03,-8.32 14.61,-5.551 25.39,-12.5 32.26,-20.903 6.88,-8.398 11.68,-18.988 14.46,-31.796 1.52,-7.973 2.3,-22.34 2.3,-43.082 v -62.309 c 0,-43.441 1.02,-70.941 2.97,-82.422 1.99,-11.519 5.9,-22.539 11.76,-33.129 h -48.52 c -4.84,9.692 -7.93,21.059 -9.3,34.031 z m -3.86,104.368 c -16.88,-6.95 -42.15,-12.809 -75.9,-17.649 -19.06,-2.781 -32.58,-5.898 -40.51,-9.379 -7.93,-3.441 -14.02,-8.511 -18.32,-15.152 -4.3,-6.68 -6.44,-14.07 -6.44,-22.231 0,-12.457 4.68,-22.808 14.06,-31.128 9.37,-8.321 23.08,-12.469 41.17,-12.469 17.89,0 33.79,3.949 47.73,11.801 13.95,7.886 24.18,18.668 30.71,32.347 5,10.539 7.5,26.133 7.5,46.711 v 17.149"
         style="fill:#0c0000;fill-opacity:1;fill-rule:nonzero;stroke:none"
         id="path118"
         inkscape:connector-curvature="0" /><path
         d="m 6408.63,110.66 v 275.711 h 41.84 v -39.18 c 20.12,30.27 49.18,45.43 87.23,45.43 16.52,0 31.68,-3.012 45.54,-8.992 13.83,-5.93 24.22,-13.789 31.1,-23.469 6.87,-9.691 11.68,-21.211 14.45,-34.539 1.72,-8.633 2.58,-23.781 2.58,-45.422 V 110.66 h -46.45 v 167.738 c 0,19.024 -1.8,33.243 -5.43,42.692 -3.59,9.422 -10.04,16.961 -19.22,22.582 -9.22,5.629 -20,8.437 -32.38,8.437 -19.8,0 -36.87,-6.328 -51.25,-18.949 -14.34,-12.648 -21.52,-36.601 -21.52,-71.91 V 110.66 h -46.49"
         style="fill:#0c0000;fill-opacity:1;fill-rule:nonzero;stroke:none"
         id="path120"
         inkscape:connector-curvature="0" /><path
         d="m 7103.63,491.25 h 50.04 V 271.371 c 0,-38.25 -4.29,-68.641 -12.89,-91.141 -8.59,-22.5 -24.14,-40.781 -46.56,-54.878 -22.46,-14.102 -51.92,-21.172 -88.4,-21.172 -35.43,0 -64.41,6.172 -86.95,18.441 -22.54,12.301 -38.64,30.078 -48.28,53.359 -9.61,23.282 -14.46,55.071 -14.46,95.391 V 491.25 h 50.08 V 271.641 c 0,-33.09 3.05,-57.422 9.14,-73.09 6.13,-15.66 16.6,-27.731 31.53,-36.211 14.84,-8.469 33.04,-12.731 54.57,-12.731 36.79,0 63.04,8.403 78.71,25.192 15.62,16.801 23.47,49.07 23.47,96.84 V 491.25"
         style="fill:#0c0000;fill-opacity:1;fill-rule:nonzero;stroke:none"
         id="path122"
         inkscape:connector-curvature="0" /><path
         d="m 7231.13,110.66 v 275.711 h 41.8 v -39.18 c 20.12,30.27 49.22,45.43 87.23,45.43 16.52,0 31.72,-3.012 45.54,-8.992 13.83,-5.93 24.22,-13.789 31.1,-23.469 6.87,-9.691 11.72,-21.211 14.45,-34.539 1.72,-8.633 2.58,-23.781 2.58,-45.422 V 110.66 h -46.45 v 167.738 c 0,19.024 -1.79,33.243 -5.43,42.692 -3.59,9.422 -10.04,16.961 -19.22,22.582 -9.21,5.629 -20,8.437 -32.38,8.437 -19.8,0 -36.87,-6.328 -51.25,-18.949 -14.33,-12.648 -21.52,-36.601 -21.52,-71.91 V 110.66 h -46.45"
         style="fill:#0c0000;fill-opacity:1;fill-rule:nonzero;stroke:none"
         id="path124"
         inkscape:connector-curvature="0" /><path
         d="m 7525.31,491.25 h 46.4922 V 437.5 H 7525.31 Z m 0,-380.59 v 275.711 h 46.49 V 110.66 h -46.49"
         style="fill:#0c0000;fill-opacity:1;fill-rule:nonzero;stroke:none"
         id="path126"
         inkscape:connector-curvature="0" /><path
         d="m 7625.2,248.52 c 0,51.05 14.1,88.859 42.34,113.468 23.55,20.391 52.26,30.633 86.17,30.633 37.7,0 68.48,-12.422 92.38,-37.269 23.95,-24.84 35.86,-59.141 35.86,-102.93 0,-35.473 -5.27,-63.402 -15.86,-83.711 -10.54,-20.352 -25.97,-36.129 -46.17,-47.379 -20.23,-11.25 -42.3,-16.883 -66.21,-16.883 -38.36,0 -69.37,12.391 -93.05,37.11 -23.63,24.773 -35.46,60.39 -35.46,106.961 z m 47.73,0 c 0,-35.321 7.66,-61.719 22.97,-79.301 15.31,-17.578 34.61,-26.367 57.81,-26.367 23.05,0 42.23,8.828 57.58,26.488 15.27,17.648 22.93,44.57 22.93,80.738 0,34.102 -7.7,59.922 -23.09,77.5 -15.39,17.582 -34.53,26.371 -57.42,26.371 -23.2,0 -42.5,-8.75 -57.81,-26.25 -15.31,-17.469 -22.97,-43.871 -22.97,-79.179"
         style="fill:#0c0000;fill-opacity:1;fill-rule:nonzero;stroke:none"
         id="path128"
         inkscape:connector-curvature="0" /><path
         d="m 7936.45,110.66 v 275.711 h 41.79 v -39.18 c 20.12,30.27 49.18,45.43 87.23,45.43 16.52,0 31.72,-3.012 45.55,-8.992 13.82,-5.93 24.21,-13.789 31.09,-23.469 6.87,-9.691 11.72,-21.211 14.45,-34.539 1.72,-8.633 2.58,-23.781 2.58,-45.422 V 110.66 h -46.44 v 167.738 c 0,19.024 -1.8,33.243 -5.43,42.692 -3.6,9.422 -10,16.961 -19.22,22.582 -9.22,5.629 -20,8.437 -32.39,8.437 -19.8,0 -36.87,-6.328 -51.25,-18.949 -14.33,-12.648 -21.52,-36.601 -21.52,-71.91 V 110.66 h -46.44"
         style="fill:#0c0000;fill-opacity:1;fill-rule:nonzero;stroke:none"
         id="path130"
         inkscape:connector-curvature="0" /></g></g></svg>