ord,addr,lat,long,cssspottop,cssspotleft
01,Waltersdorfer Chaussée / Friedenstraße (Brandenburg),52.40079,13.51427,100.00,5.06
02,Next to Friedenstraße / Meisenweg (Brandenburg),52.40157,13.51643,99.62,3.79
03,Between Berliner Mauerweg and Friedenstraße (Brandenburg),52.40177,13.51662,99.52,3.68
04,Between Rüdower Höhe and Hornkleepfad / Am Kiesberg,52.41775,13.52289,91.76,0.00
05,Rüdower Höhe,52.42082,13.52138,90.27,0.89
06,Neudecker Weg / Rüdower Straße,52.42279,13.51907,89.31,2.24
07,Rüdower Straße / Köpenicker Straße,52.42371,13.52082,88.86,1.21
08,Teltowkanal - next to the A 113 bridge,52.42602,13.52284,87.74,0.03
09,Johannes-Sasse-Ring / A 113,52.43303,13.50056,84.33,13.10
10,Massante Brücke / Strubenrauch Straße,52.43303,13.49902,84.33,14.00
11,Teltowkanal near Massante Brücke,52.43452,13.49577,83.61,15.91
12,Teltowkanal next to Gudrunweg,52.44151,13.48144,80.21,24.32
13,Agavensteig - next to Teltowkanal,52.44387,13.47808,79.07,26.29
14,Alte Späthbrücke,52.45064,13.46344,75.78,34.88
15,Teltowkanal from Alte Späthbrücke,52.45109,13.46257,75.56,35.39
16,Späthstraße / Neue Späthstraße / A 113,52.45256,13.46378,74.84,34.68
17,Teltowkanal / Britzer Verbindungskanal / Neuköllner Schiffahrtskanal,52.45842,13.45767,72.00,38.26
18,Berliner Mauerweg / Sonnenallee,52.46211,13.47749,70.20,26.63
19,Berliner Mauerweg - next to Heidekampweg,52.46552,13.47872,68.55,25.91
20,Kiefholzstraße next to Nördlicher Heidekampgraben,52.47684,13.47101,63.04,30.44
21,Wildenbruchstraße / Heidelberger Straße,52.48814,13.44874,57.55,43.50
22,Bouchéstraße / Harzer Straße,52.48742,13.44421,57.90,46.16
23,Harzer Straße / Lohmühlenstraße,52.48989,13.44001,56.70,48.62
24,Lohmühlenstraße / Wiener Brücke,52.49409,13.44471,54.66,45.86
25,Schlesischer Busch / Puschkinallee,52.49586,13.45104,53.80,42.15
26,Schlesische Straße / Falckensteinstraße,52.50002,13.44392,51.78,46.33
27,Oberbaumbrücke / Mühlenstraße,52.50255,13.44656,50.55,44.78
28,Mühlenstraße / Warschauer Straße,52.50279,13.44642,50.43,44.86
29,Mühlenstraße - next to Tamara-Danz Straße,52.50324,13.44492,50.22,45.74
30,Köpenicker Straße / Brommystraße,52.50449,13.43498,49.61,51.57
31,River Spree from Kreuzberg - next to Brommystraße ,52.50601,13.43441,48.87,51.91
32,Köpenicker Straße / Engeldamm,52.50788,13.42717,47.96,56.15
33,Bethaniendamm / Köpenicker Straße,52.50699,13.42779,48.39,55.79
34,Engelbecken / Leuschnerdamm,52.50497,13.41786,49.38,61.62
35,Alfred-Döblin Platz,52.50436,13.41467,49.67,63.49
36,Alexandrinenstraße / Stallschreiberstraße,52.50665,13.40808,48.56,67.35
37,Kommandantenstraße / Beuthstraße,52.50877,13.40241,47.53,70.68
38,Zimmerstraße / Axel-Springer Straße,52.50816,13.39866,47.83,72.88
39,Zimmerstraße / Friedrichstraße. Checkpoint Charlie,52.50766,13.39046,48.07,77.69
40,Niederkirchnerstraße / Wilhelmstraße. Topographie des Terrors,52.50717,13.38551,48.31,80.59
41,Niederkirchnerstraße / Wilhelmstraße,52.50743,13.38539,48.18,80.66
42,Niederkirchnerstraße / Wilhelmstraße,52.50736,13.38543,48.21,80.64
43,Niederkirchnerstraße / Stresemannstraße,52.50708,13.37907,48.35,84.37
44,Stresemannstraße / Köthener Straße,52.50802,13.37784,47.89,85.09
45,Stresemannstraße / Erna-Berger Straße,52.50822,13.37779,47.80,85.12
46,Lennéstraße / Auguste-Hauschner Straße,52.51177,13.37543,46.07,86.51
47,Ebertstraße - between Hannah-Arendt Straße and Behrenstraße,52.51399,13.37729,44.99,85.42
48,Marschallbrücke / Reichstagufer,52.51894,13.38003,42.59,83.81
49,Reinhardtstraße/ Schiffbauerdamm,52.52193,13.37649,41.13,85.89
50,Sandkrugbrücke,52.52792,13.37393,38.22,87.39
51,Invalidenfriedhof,52.53192,13.37058,36.28,89.35
52,Boyenstraße - next to Ericka-Hess-Eisstadion,52.53685,13.37028,33.88,89.53
53,Liesestraße / Gartenstraße,52.54051,13.37957,32.11,84.08
54,Gartenstraße / Julie-Wolfthorn Straße,52.53349,13.38655,35.52,79.98
55,Gartenstraße / Bernauer Straße,52.53325,13.38759,35.63,79.37
56,Bernauer Straße / Gedenkstätte Berliner Mauer,52.53348,13.38873,35.52,78.70
57,Bernauer Straße - between Swinemünder Straße and Wolliner Straße,52.53917,13.40101,32.76,71.50
58,Eberwalder Straße / Mauer Park,52.54073,13.40432,32.00,69.56
59,Bösebrücke / Bornholmer Straße,52.55476,13.39815,25.18,73.18
60,Brehmestraße backyards,52.56171,13.39687,21.80,73.93
61,Provinzstraße / Berliner Mauerweg,52.57336,13.38009,16.14,83.77
62,Berliner Mauerweg / Kopenhagener Straße,52.58212,13.36274,11.89,93.95
63,Berliner Mauerweg / Kopenhagener Straße,52.58233,13.36233,11.78,94.19
64,Berliner Mauerweg - between Heinz-Brandt-Straße and Dannenwalder Weg,52.59116,13.35243,7.49,100.00
65,Berliner Mauerweg / Quickborner Straße,52.59989,13.37123,3.25,88.97
66,Berliner Mauerweg / Straße 127,52.60658,13.3762,0.00,86.06
67,delete this page / delete this page ,52.60658,13.3762,0.00,86.06
